{
  "appenders": {
    "console": {
      "type": "stdout",
      "layout": { "type": "colored" }
    }
  },
  "categories": {
    "default": {
      "appenders": ["console"],
      "level": "DEBUG"
    }
  }
}
